digraph {

    newrank = true

    subgraph cluster_3001 {
	label="Abstract Dialog"
	style=filled
	colorscheme=set312
	fillcolor=3
	color=White
	node [style=filled, fillcolor=White]

        AbstractDialog -> HaruhiAttributes
        AbstractDialog -> Content
        Content -> Config
        Content -> Widgets
        Content [shape=invhouse]
        Widgets -> Header
        Header -> Box
        Box -> EventControl
        Box -> CancelButton
        Box -> Label
        Box -> SelectButton
    }
    
    Widgets -> Dialog [label="loopback", color=red]
    AbstractDialog -> Dialog [
        label="inherit",
        dir=both,
        arrowhead=odot, 
        arrowtail=odot
        ]
        
    Dialog [
        shape=doublecircle,
	colorscheme=set312,
	fillcolor=3,
	style=filled        
        ]
        
    Dialog -> ChooserWidget
    ChooserWidget -> FileFilters
    ChooserWidget -> ChooserConfig
    ChooserWidget -> Preview
    Preview -> PreviewActivator
    
    { rank=same; Dialog; AbstractDialog; }
     
}